{
  "errors": {
    "400": {
      "hits": 126,
      "paths": {}
    },
    "404": {
      "hits": 362,
      "paths": {}
    }
  },
  "firstProcessedDate": "2020-12-07T00:04:04+00:00",
  "hits": 3048,
  "hitsPerCountry": {
    "CA": 150,
    "DE": 160,
    "FR": 120,
    "GB": 327,
    "NL": 171,
    "RU": 243,
    "US": 1341
  },
  "lastProcessedDate": "2020-12-13T23:58:31+00:00",
  "paths": {
    "/": {
      "hits": 327
    },
    "/android-free/repository/": {
      "hits": 1971,
      "hitsPerCountry": {
        "CA": 144,
        "DE": 128,
        "GB": 309,
        "NL": 161,
        "US": 915
      }
    },
    "/robots.txt": {
      "hits": 133
    }
  },
  "queries": {},
  "weekStartDate": "2020-12-07T00:00:00+00:00"
}