{
  "errors": {
    "400": {
      "hits": 117,
      "paths": {}
    },
    "404": {
      "hits": 507,
      "paths": {}
    }
  },
  "firstProcessedDate": "2021-03-30T06:28:39+00:00",
  "hits": 2975,
  "hitsPerCountry": {
    "-": 208,
    "DE": 129,
    "GB": 268,
    "NL": 115,
    "US": 1554
  },
  "lastProcessedDate": "2021-04-04T23:58:11+00:00",
  "paths": {
    "/": {
      "hits": 303
    },
    "/android-free/repository/": {
      "hits": 1673,
      "hitsPerCountry": {
        "GB": 261,
        "NL": 104,
        "US": 833
      }
    },
    "/robots.txt": {
      "hits": 125
    }
  },
  "queries": {
    "": {
      "hits": 179
    }
  },
  "weekStartDate": "2021-03-29T00:00:00+00:00"
}