{
  "errors": {
    "404": {
      "hits": 322,
      "paths": {}
    }
  },
  "firstProcessedDate": "2021-01-06T06:25:25+00:00",
  "hits": 2203,
  "hitsPerCountry": {
    "-": 165,
    "DE": 114,
    "FR": 131,
    "GB": 244,
    "NL": 120,
    "US": 941
  },
  "lastProcessedDate": "2021-01-10T23:55:25+00:00",
  "paths": {
    "/": {
      "hits": 234
    },
    "/android-free/repository/": {
      "hits": 1356,
      "hitsPerCountry": {
        "GB": 207,
        "NL": 114,
        "US": 627
      }
    }
  },
  "queries": {},
  "weekStartDate": "2021-01-04T00:00:00+00:00"
}