{
  "errors": {
    "400": {
      "hits": 187,
      "paths": {
        "": 102
      }
    },
    "404": {
      "hits": 605,
      "paths": {}
    }
  },
  "firstProcessedDate": "2021-02-22T00:02:22+00:00",
  "hits": 3566,
  "hitsPerCountry": {
    "-": 255,
    "DE": 107,
    "FR": 116,
    "GB": 405,
    "JP": 157,
    "NL": 241,
    "RU": 254,
    "US": 1521
  },
  "lastProcessedDate": "2021-02-28T23:55:58+00:00",
  "paths": {
    "/": {
      "hits": 360
    },
    "/android-free/repository/": {
      "hits": 2016,
      "hitsPerCountry": {
        "FR": 104,
        "GB": 359,
        "JP": 153,
        "NL": 219,
        "US": 894
      }
    },
    "/robots.txt": {
      "hits": 159
    }
  },
  "queries": {},
  "weekStartDate": "2021-02-22T00:00:00+00:00"
}